{
  "yml_template":"update-ci.yml",
  "device_list": [
    {
      "id":"rpi3_initial",
      "schedule":"rpi3_initial_latest",
      "tag":"rpi3_initial_stable",
      "build": [
        {
          "name":"default",
          "options":"PANTAVISOR_DEBUG=yes"
        }
      ]
    },
    {
      "id":"malta_initial",
      "schedule":"malta_initial_latest",
      "tag":"malta_initial_stable",
      "build": [
        {
          "name":"default",
          "options":"PANTAVISOR_DEBUG=yes"
        }
      ]
    },
    {
      "id":"bpi_r2_initial",
      "schedule":"bpi_r2_initial_latest",
      "tag":"bpi_r2_initial_stable",
      "build": [
        {
          "name":"default",
          "options":"PANTAVISOR_DEBUG=yes"
        }
      ]
    },
    {
      "id":"x64_initial",
      "schedule":"x64_initial_latest",
      "tag":"x64_initial_stable",
      "build": [
        {
          "name":"default",
          "options":"PANTAVISOR_DEBUG=yes"
        },
        {
          "name":"installer",
          "options":"PVR_USE_SRC_BSP=no PANTAVISOR_DEBUG=yes PV_INSTALLER=yes MMC_SIZE=1024"
        },
        {
          "name":"installer-sdo",
          "options":"PVR_USE_SRC_BSP=no PANTAVISOR_DEBUG=yes PV_INSTALLER=yes MMC_SIZE=1024 SDO_INSTALLER=yes"
        }
      ]
    },
    {
      "id":"rpi4_initial",
      "schedule":"rpi4_initial_latest",
      "tag":"rpi4_initial_stable",
      "build": [
        {
          "name":"default",
          "options":"PANTAVISOR_DEBUG=yes"
        }
      ]
    },
    {
      "id":"rpi0w_initial",
      "schedule":"rpi0w_initial_latest",
      "tag":"rpi0w_initial_stable",
      "build": [
        {
          "name":"default",
          "options":"PANTAVISOR_DEBUG=yes"
        }
      ]
    },
    {
      "id":"colibri_imx6_7_initial",
      "schedule":"colibri_imx6_7_initial_latest",
      "tag":"colibri_imx6_7_initial_stable",
      "build": [
        {
          "name":"default",
          "options":"PANTAVISOR_DEBUG=yes"
        }
      ]
    },
    {
      "id":"odroid_c2_initial",
      "schedule":"odroid_c2_initial_latest",
      "tag":"odroid_c2_initial_stable",
      "build": [
        {
          "name":"default",
          "options":"PANTAVISOR_DEBUG=yes"
        }
      ]
    }
  ]
}
